Procesamiento de Lenguaje Natural con R
…
read_rds("./data/covid_19.rds") %>%
  select(screen_name, text, created_at) -> df

df %>%
  filter(str_detect(text, "@")) %>%
  mutate(text = str_extract_all(text, "@\\w+", simplify = F)) %>%
  unnest(text) %>%
  count(text, sort = T)
```

---

```
#> # A tibble: 574 × 2
#>    text                 n
#>    <chr>            <int>
#>  1 @realDonaldTrump    57
#>  2 @RealJamesWoods     45
#>  3 @LivePDDave1        31
#>  4 @DonaldJTrumpJr     16
#>  5 @RealCandaceO       15
#>  6 @Heat_Miser2        14
#>  7 @SKYRIDER4538       14
#>  8 @ScottFordTVGuy     12
#>  9 @Julietknows1       11
#> 10 @TomFitton          11
#> # ℹ 564 more rows
```
…
